com\PKglobal\SeleniumAssignment\Util\Utilities.class
com\PKglobal\SeleniumAssignment\Base\Constants.class
com\PKglobal\SeleniumAssignment\ObjectRepo\IProductPageOR.class
com\PKglobal\SeleniumAssignment\Base\TestBase.class
com\PKglobal\SeleniumAssignment\ObjectRepo\IHomePageOR.class
com\PKglobal\SeleniumAssignment\Base\TestData.class
com\PKglobal\SeleniumAssignment\Listeners\CustomListeners.class
com\PKglobal\SeleniumAssignment\ObjectRepo\HomePageLocators.class
com\PKglobal\SeleniumAssignment\Util\ExtentReportGenerator.class
com\PKglobal\SeleniumAssignment\Actions\HomePage.class
com\PKglobal\SeleniumAssignment\ObjectRepo\IProductSummaryPage.class
com\PKglobal\SeleniumAssignment\ObjectRepo\ProductPageLocators.class
com\PKglobal\SeleniumAssignment\Actions\ProductPage.class
com\PKglobal\SeleniumAssignment\Listeners\ErrorPool.class
com\PKglobal\SeleniumAssignment\Listeners\TestListenerAdapter.class
